IODS course project
…
variable school because peer pressure can affect alcohol consumption.

variable famsize which is a binary variable of less than 3 family members or more than 3 family members. My hypothesis is that family size does not predict alcohol consumption.

variable age because there is a legal age (lets say its 18 for this dataset) for using alcohol, and some of the respondents in the data are below 18 years old.

variable absences, number of school absences (numeric: from 0 to 93) because other norm-breaking behavior such as absences from school may occur if student is also consuming alcohol regularly.

Here is an overview of the four variables in the dataset:

alc %>% group_by(school, famsize, age, absences) %>% summarise(count = n())

## `summarise()` has grouped output by 'school', 'famsize', 'age'. You can override using the `.groups` argument.

## # A tibble: 139 x 5
## # Groups:   school, famsize, age [17]
##    school famsize   age absences count
##    <chr>  <chr>   <int>    <int> <int>
##  1 GP     GT3        15        0    13
##  2 GP     GT3        15        1    11
##  3 GP     GT3        15        2    11
##  4 GP     GT3        15        3     9
##  5 GP     GT3        15        4     4
##  6 GP     GT3        15        5     4
##  7 GP     GT3        15        6     4
##  8 GP     GT3        15        7     1
##  9 GP     GT3        15        8     1
## 10 GP     GT3        15       10     1
## # ... with 129 more rows
…
